0.5 0.0165493
1.5 0.0153127
2.5 0.0159485
3.5 0.0166954
4.5 0.0175514
5.5 0.0185082
6.5 0.0196121
7.5 0.0208388
8.5 0.0222708
9.5 0.0239279
10.5 0.0258922
11.5 0.028248
12.5 0.0311441
13.5 0.0349484
14.5 0.0399597
15.5 0.0471195
16.5 0.0582199
17.5 0.0792049
18.5 0.141637
19.5 1
